Baseline processor/bbb.vcd
$date
	Tue Feb 11 21:01:53 2020
$end
$version
	Icarus Verilog
$end
$timescale
	1ps
$end
$scope module tb_decode $end
$var wire 1 ! dec_is_stype $end
$var wire 1 " is_compressed $end
$var wire 1 # id_wr_en $end
$var wire 2 $ id_store_select [1:0] $end
$var wire 1 % id_sel_opB $end
$var wire 1 & id_sel_opA $end
$var wire 2 ' id_sel_data [1:0] $end
$var wire 5 ( id_rsB [4:0] $end
$var wire 5 ) id_rsA [4:0] $end
$var wire 5 * id_rd [4:0] $end
$var wire 1 + id_is_stype $end
$var wire 3 , id_imm_select [2:0] $end
$var wire 32 - id_imm [31:0] $end
$var wire 3 . id_dm_select [2:0] $end
$var wire 4 / id_ALU_op [3:0] $end
$var wire 1 0 dec_wr_en $end
$var wire 2 1 dec_store_select [1:0] $end
$var wire 1 2 dec_sel_opB $end
$var wire 1 3 dec_sel_opA $end
$var wire 2 4 dec_sel_data [1:0] $end
$var wire 5 5 dec_rs2 [4:0] $end
$var wire 5 6 dec_rs1 [4:0] $end
$var wire 5 7 dec_rd [4:0] $end
$var wire 20 8 dec_jt [19:0] $end
$var wire 3 9 dec_imm_select [2:0] $end
$var wire 32 : dec_imm [31:0] $end
$var wire 3 ; dec_dm_select [2:0] $end
$var wire 4 < dec_alu_op [3:0] $end
$var reg 32 = comp_inst [31:0] $end
$var reg 32 > inst [31:0] $end
$var integer 32 ? i [31:0] $end
$scope module dddd $end
$var wire 4 @ alu_op [3:0] $end
$var wire 16 A inst [15:0] $end
$var wire 1 ! is_stype $end
$var wire 1 B shift_inst $end
$var wire 1 C sign $end
$var wire 1 0 wr_en $end
$var wire 2 D store_select [1:0] $end
$var wire 1 2 sel_opB $end
$var wire 1 3 sel_opA $end
$var wire 2 E sel_data [1:0] $end
$var wire 5 F rs2_full [4:0] $end
$var wire 6 G rs2_eff [5:0] $end
$var wire 3 H rs2_abb [2:0] $end
$var wire 5 I rs2 [4:0] $end
$var wire 6 J rs1_eff [5:0] $end
$var wire 3 K rs1_abb [2:0] $end
$var wire 5 L rs1 [4:0] $end
$var wire 5 M rd7 [4:0] $end
$var wire 5 N rd [4:0] $end
$var wire 1 O quad_2 $end
$var wire 1 P quad_1 $end
$var wire 1 Q quad_0 $end
$var wire 2 R opcode [1:0] $end
$var wire 1 S not_func3 $end
$var wire 6 T lui_set [5:0] $end
$var wire 5 U low5 [4:0] $end
$var wire 3 V jump_upper [2:0] $end
$var wire 20 W jt [19:0] $end
$var wire 1 " is_compressed $end
$var wire 3 X imm_select [2:0] $end
$var wire 32 Y imm [31:0] $end
$var wire 1 Z funct4 $end
$var wire 3 [ funct3 [2:0] $end
$var wire 2 \ funct2_lo [1:0] $end
$var wire 2 ] funct2 [1:0] $end
$var wire 3 ^ dm_select [2:0] $end
$var reg 1 _ b_type $end
$var reg 1 ` ebreak_type $end
$var reg 1 a i_type $end
$var reg 1 b j_type $end
$var reg 1 c jr_type $end
$var reg 1 d load_inst $end
$var reg 1 e lssp_imm $end
$var reg 1 f lui_type $end
$var reg 1 g r_type $end
$var reg 1 h sp_imm $end
$var reg 1 i spn_imm $end
$var reg 1 j store_inst $end
$var reg 4 k temp_op [3:0] $end
$var reg 6 l temp_rd [5:0] $end
$var reg 6 m temp_rs1 [5:0] $end
$var reg 6 n temp_rs2 [5:0] $end
$var reg 1 o unsigned_imm $end
$upscope $end
$scope module dec_test $end
$var wire 32 p inst [31:0] $end
$var wire 1 # id_wr_en $end
$var wire 2 q id_store_select [1:0] $end
$var wire 1 % id_sel_opB $end
$var wire 1 & id_sel_opA $end
$var wire 2 r id_sel_data [1:0] $end
$var wire 5 s id_rsB [4:0] $end
$var wire 5 t id_rsA [4:0] $end
$var wire 5 u id_rd [4:0] $end
$var wire 7 v id_opcode [6:0] $end
$var wire 1 + id_is_stype $end
$var wire 3 w id_imm_select [2:0] $end
$var wire 32 x id_imm [31:0] $end
$var wire 7 y id_funct7 [6:0] $end
$var wire 3 z id_funct3 [2:0] $end
$var wire 3 { id_dm_select [2:0] $end
$var wire 4 | id_ALU_op [3:0] $end
$scope module CONTROL $end
$var wire 3 } dm_select [2:0] $end
$var wire 3 ~ funct3 [2:0] $end
$var wire 7 !" funct7 [6:0] $end
$var wire 7 "" opcode [6:0] $end
$var wire 1 # wr_en $end
$var wire 2 #" store_select [1:0] $end
$var wire 2 $" sel_pc [1:0] $end
$var wire 1 %" sel_opBR $end
$var wire 1 % sel_opB $end
$var wire 1 & sel_opA $end
$var wire 2 &" sel_data [1:0] $end
$var wire 1 + is_stype $end
$var wire 1 '" is_jump $end
$var wire 1 (" is_btype $end
$var wire 3 )" imm_select [2:0] $end
$var wire 4 *" ALU_op [3:0] $end
$upscope $end
$scope module SHIFTSIGNSHUFF $end
$var wire 3 +" imm_select [2:0] $end
$var wire 25 ," inst [24:0] $end
$var wire 32 -" Utype_imm [31:0] $end
$var wire 32 ." Stype_imm [31:0] $end
$var wire 32 /" Jtype_imm [31:0] $end
$var wire 32 0" Itype_imm [31:0] $end
$var wire 32 1" Btype_imm [31:0] $end
$var reg 32 2" imm [31:0] $end
$upscope $end
$upscope $end
$upscope $end
$enddefinitions $end
#0
$dumpvars
b0 2"
b0 1"
b0 0"
b0 /"
b0 ."
b0 -"
b0 ,"
b0 +"
b1 *"
b0 )"
0("
0'"
b1 &"
0%"
b0 $"
b10 #"
b0 ""
b0 !"
b0 ~
b0 }
b1 |
b0 {
b0 z
b0 y
b0 x
b0 w
b0 v
b0 u
b0 t
b0 s
b1 r
b10 q
b0 p
1o
b0 n
b10 m
b1000 l
b1 k
0j
1i
0h
0g
0f
0e
0d
0c
0b
1a
0`
1_
b0 ^
b0 ]
b0 \
b0 [
0Z
b0 Y
b11 X
b0 W
b0 V
b0 U
b0 T
0S
b0 R
1Q
0P
0O
b1000 N
b0 M
b10 L
b0 K
b1000 J
b0 I
b0 H
b1000 G
b0 F
b1 E
b0 D
0C
0B
b0 A
b1 @
bx ?
b0 >
b0 =
b1 <
b0 ;
b0 :
b11 9
b0 8
b1000 7
b10 6
b0 5
b1 4
13
02
b0 1
00
b1 /
b0 .
b0 -
b0 ,
0+
b0 *
b0 )
b0 (
b1 '
1&
1%
b10 $
1#
1"
z!
$end
#50000
b11 4
b11 E
b10 ;
b10 ^
b1001 6
b1001 L
b11 '
b11 r
b11 &"
1d
0o
0i
0a
b1000 l
b1001 m
b0 V
b0 8
b0 W
b0 T
b100000 :
b100000 Y
0C
b10000000 -
b10000000 x
b10000000 2"
b10 [
1Z
b1 M
b1001 J
b1 K
b10000000 0"
b10001000 ."
b1000000001001010000000000000 -"
b10001000 1"
b1001010000010000000 /"
b101000010000000 A
b11 v
b11 ""
b10 .
b10 {
b10 }
b10 z
b10 ~
b100 y
b100 !"
b1001 )
b1001 t
b1000 *
b1000 u
b100000000100101001000 ,"
b10101000010000000 =
b1000000001001010010000000011 >
b1000000001001010010000000011 p
b0 ?
#70000
b1 4
b1 E
b1 ,
b1 w
b1 )"
b1 +"
b10 1
b10 D
b1010 5
b1010 I
b0 ;
b0 ^
b0 7
b0 N
b1010 6
b1010 L
b1 '
b1 r
b1 &"
1j
b1010 n
0d
b0 l
b1010 m
0#
b10000000 -
b10000000 x
b10000000 2"
b110 [
b10 M
b10 F
b1010 J
b10 K
b1010 G
b10 H
b10 T
b10 U
b10 V
b1000010 8
b1000010 W
1+
b10001010 0"
b10000000 ."
b1000101001010010000000000000 -"
b10000000 1"
b1010010000010001010 /"
b1101000100001000 A
b100011 v
b100011 ""
b1010 )
b1010 t
b1010 (
b1010 s
b0 *
b0 u
b100010100101001000000 ,"
b11101000100001000 =
b1000101001010010000000100011 >
b1000101001010010000000100011 p
b1 ?
#90000
b100 9
b100 X
b0 1
b0 D
b0 5
b0 I
b0 6
b0 L
b110110 :
b110110 Y
1b
0j
b0 n
b0 m
1'"
1#
b1 $"
b0 '
b0 r
b0 &"
b11111111111111111111111111110010 -
b11111111111111111111111111110010 x
b11111111111111111111111111110010 2"
0Q
1P
b1 R
b101 [
b10 \
b11 M
b10110 F
b1011 J
b11 K
b1110 G
b110 H
b10110 T
b10110 U
b10011000110 8
b10011000110 W
0+
b100 ,
b100 w
b100 )"
b100 +"
b11111111111111111111111111110011 0"
b11111111111111111111111111100000 ."
b11111111001111111111000000000000 -"
b11111111111111111111011111100000 1"
b11111111111111111111111111110010 /"
b1011000111011001 A
b1101111 v
b1101111 ""
b111 .
b111 {
b111 }
b111 z
b111 ~
b1111111 y
b1111111 !"
b11111 )
b11111 t
b10011 (
b10011 s
b1111111100111111111100000 ,"
b11011000111011001 =
b11111111001111111111000001101111 >
b11111111001111111111000001101111 p
b10 ?
#110000
b1 7
b1 N
b111110 :
b111110 Y
b1 l
1b
b10011001110 8
b10011001110 W
b11111111111111111111111111101100 -
b11111111111111111111111111101100 x
b11111111111111111111111111101100 2"
b1 [
b11 \
b11110 F
b11110 T
b11110 U
b11111111111111111111111111101101 0"
b11111111111111111111111111100001 ."
b11111110110111111111000000000000 -"
b11111111111111111111111111100000 1"
b11111111111111111111111111101100 /"
b11000111111001 A
b1101 (
b1101 s
b1 *
b1 u
b1111111011011111111100001 ,"
b10011000111111001 =
b11111110110111111111000011101111 >
b11111110110111111111000011101111 p
b11 ?
#130000
03
b110 6
b110 L
b0 4
b0 E
b0 7
b0 N
b110 m
1c
0b
b0 l
b0 :
b0 Y
b0 -
b0 x
b0 2"
0P
1O
b10 R
1S
b100 [
0Z
b0 \
b110 M
b0 F
b1110 J
b110 K
b1000 G
b0 H
b0 T
b0 U
b100000000 8
b100000000 W
b0 ,
b0 w
b0 )"
b0 +"
1%"
b0 0"
b0 ."
b110000000000000000 -"
b0 1"
b110000000000000000 /"
b1000001100000010 A
b1100111 v
b1100111 ""
b0 .
b0 {
b0 }
b0 z
b0 ~
b0 y
b0 !"
b110 )
b110 t
b0 (
b0 s
b0 *
b0 u
b11000000000 ,"
b11000001100000010 =
b110000000001100111 >
b110000000001100111 p
b100 ?
#150000
b1 7
b1 N
b100000 :
b100000 Y
b1 l
1c
b110 m
1Z
b1 ."
b100000000000 1"
b1001001100000010 A
b1 *
b1 u
b11000000001 ,"
b11001001100000010 =
b110000000011100111 >
b110000000011100111 p
b101 ?
#170000
b11 9
b11 X
13
b1 4
b1 E
b0 7
b0 N
b1011 6
b1011 L
b10 <
b10 @
b10 k
0c
b0 l
b1011 m
b100110 :
b100110 Y
0%
0'"
0#
b11 ,
b11 w
b11 )"
b11 +"
b0 $"
b1 '
b1 r
b1 &"
b10 /
b10 |
b10 *"
b11111111111111111111111111011010 -
b11111111111111111111111111011010 x
b11111111111111111111111111011010 2"
1P
0O
b1 R
0S
b110 [
b11 ]
b11011 M
b110 F
b1011 J
b11 K
b1110 G
b110 H
b110 T
b110 U
b11 V
b1011110 8
b1011110 W
1("
0%"
b11111111111111111111111111000000 0"
b11111111111111111111111111011011 ."
b11111100000001011000000000000000 -"
b11111111111111111111111111011010 1"
b11111111111101011000011111000000 /"
b1101110110011001 A
b1100011 v
b1100011 ""
b1111110 y
b1111110 !"
b1011 )
b1011 t
b11011 *
b11011 u
b1111110000000101100011011 ,"
b11101110110011001 =
b11111100000001011000110111100011 >
b11111100000001011000110111100011 p
b110 ?
#190000
b10 <
b10 @
b10 k
b1011 m
b1010110 8
b1010110 W
b11111111111111111111111111010100 -
b11111111111111111111111111010100 x
b11111111111111111111111111010100 2"
b111 [
b10 ]
b10011 M
b10 V
b11111111111111111111111111010101 ."
b11111100000001011001000000000000 -"
b11111111111111111111111111010100 1"
b11111111111101011001011111000000 /"
b1111100110011001 A
b1 .
b1 {
b1 }
b1 z
b1 ~
b10101 *
b10101 u
b1111110000000101100110101 ,"
b11111100110011001 =
b11111100000001011001101011100011 >
b11111100000001011001101011100011 p
b111 ?
#210000
b10100 7
b10100 N
b0 6
b0 L
1a
b10100 l
b1 <
b1 @
b1 k
b0 m
b11001 :
b11001 Y
1%
1#
b0 ,
b0 w
b0 )"
b0 +"
b1 /
b1 |
b1 *"
b11001 -
b11001 x
b11001 2"
b10 [
0Z
b11 \
b10100 M
b11001 F
b1100 J
b100 K
b1001 G
b1 H
b11001 T
b11001 U
b0 V
b110110000 8
b110110000 W
0("
b11001 0"
b10100 ."
b1100100000000000000000000 -"
b10100 1"
b100000011000 /"
b100101001100101 A
b10011 v
b10011 ""
b0 .
b0 {
b0 }
b0 z
b0 ~
b0 y
b0 !"
b0 )
b0 t
b11001 (
b11001 s
b10100 *
b10100 u
b110010000000010100 ,"
b10100101001100101 =
b1100100000000101000010011 >
b1100100000000101000010011 p
b1000 ?
#230000
b1 /
b1 |
b1 *"
b10 4
b10 E
03
b10 ,
b10 w
b10 )"
b10 +"
1f
0a
b10100 l
b100000000000000 :
b100000000000000 Y
b10 '
b10 r
b10 &"
b100000000000000 -
b100000000000000 x
b100000000000000 2"
b11 [
b0 \
b100 F
b1100 G
b100 H
b100 T
b100 U
b100010100 8
b100010100 W
b0 0"
b100000000000000 -"
b100000000000000 /"
b110101000010001 A
b110111 v
b110111 ""
b100 .
b100 {
b100 }
b100 z
b100 ~
b0 (
b0 s
b10010100 ,"
b10110101000010001 =
b100101000110111 >
b100101000110111 p
b1001 ?
#250000
b1 4
b1 E
13
b0 ,
b0 w
b0 )"
b0 +"
b1111 6
b1111 L
b1111 7
b1111 N
1a
b1111 m
0f
b1111 l
b111 :
b111 Y
b1 '
b1 r
b1 &"
b111 -
b111 x
b111 2"
b0 [
b1 ]
b1111 M
b111 F
b1111 J
b111 K
b1111 G
b111 H
b111 T
b111 U
b11 V
b101101110 8
b101101110 W
b111 0"
b1111 ."
b11101111000000000000000 -"
b100000001110 1"
b1111000100000000110 /"
b11110011101 A
b10011 v
b10011 ""
b0 .
b0 {
b0 }
b0 z
b0 ~
b1111 )
b1111 t
b111 (
b111 s
b1111 *
b1111 u
b1110111100001111 ,"
b10000011110011101 =
b11101111000011110010011 >
b11101111000011110010011 p
b1010 ?
#270000
b10 7
b10 N
b10 6
b10 L
1h
1a
b10 l
b10 m
b10000 :
b10000 Y
b10000 -
b10000 x
b10000 2"
b11 [
b0 ]
b10 \
b10 M
b10000 F
b1010 J
b10 K
b1000 G
b0 H
b10000 T
b10000 U
b10 V
b10000000 8
b10000000 W
b10000 0"
b10 ."
b1000000010000000000000000 -"
b10 1"
b10000000000010000 /"
b110000101000001 A
b10 )
b10 t
b10000 (
b10000 s
b10 *
b10 u
b100000001000000010 ,"
b10110000101000001 =
b1000000010000000100010011 >
b1000000010000000100010011 p
b1011 ?
#290000
b100 :
b100 Y
b1100 7
b1100 N
1o
1i
0h
1a
b1100 l
b10 m
b100 -
b100 x
b100 2"
1Q
0P
b0 R
b0 [
b0 M
b10100 F
b1000 J
b0 K
b1100 G
b100 H
b10100 T
b10100 U
b0 V
b10000100 8
b10000100 W
b100 0"
b1100 ."
b10000010000000000000000 -"
b1100 1"
b10000000000000100 /"
b1010000 A
b100 (
b100 s
b1100 *
b1100 u
b1000001000001100 ,"
b10000000001010000 =
b10000010000011000010011 >
b10000010000011000010011 p
b1100 ?
#310000
b1001 /
b1001 |
b1001 *"
1B
b1011 7
b1011 N
b1011 6
b1011 L
b101 :
b101 Y
b1001 <
b1001 @
b1001 k
1o
0i
1a
b1011 l
b1011 m
b101 -
b101 x
b101 2"
0Q
1P
b1 R
1S
b100 [
b0 \
b11 M
b101 F
b1011 J
b11 K
b1101 G
b101 H
b101 T
b101 U
b10 V
b100100 8
b100100 W
b101 0"
b1011 ."
b10101011101000000000000 -"
b100000001010 1"
b1011101100000000100 /"
b1000000110010101 A
b101 .
b101 {
b101 }
b101 z
b101 ~
b1011 )
b1011 t
b101 (
b101 s
b1011 *
b1011 u
b1010101110101011 ,"
b11000000110010101 =
b10101011101010110010011 >
b10101011101010110010011 p
b1101 ?
#330000
b1010 /
b1010 |
b1010 *"
1o
1a
b1010 <
b1010 @
b1010 k
b1011 l
b1011 m
b101100 8
b101100 W
b10000000101 -
b10000000101 x
b10000000101 2"
b1 ]
b1011 M
b11 V
b10000000101 0"
b10000001011 ."
b1000000010101011101000000000000 -"
b110000001010 1"
b1011101110000000100 /"
b1000010110010101 A
b100000 y
b100000 !"
b100000001010101110101011 ,"
b11000010110010101 =
b1000000010101011101010110010011 >
b1000000010101011101010110010011 p
b1110 ?
#350000
0B
b11 /
b11 |
b11 *"
0o
1a
b11 <
b11 @
b11 k
b1011 l
b1011 m
b101 -
b101 x
b101 2"
b10 ]
b10011 M
b10 V
b110100 8
b110100 W
b101 0"
b1011 ."
b10101011111000000000000 -"
b100000001010 1"
b1011111100000000100 /"
b1000100110010101 A
b111 .
b111 {
b111 }
b111 z
b111 ~
b0 y
b0 !"
b1010101111101011 ,"
b11000100110010101 =
b10101011111010110010011 >
b10101011111010110010011 p
b1111 ?
#370000
b10011 5
b10011 I
b10010 7
b10010 N
b0 6
b0 L
b1 /
b1 |
b1 *"
1g
b10011 n
0a
b1 <
b1 @
b1 k
b10010 l
b0 m
b10011 :
b10011 Y
0%
b10011 -
b10011 x
b10011 2"
0P
1O
b10 R
b10 \
b10010 M
b10011 F
b1010 J
b10 K
b1011 G
b11 H
b10011 T
b10011 U
b11110010 8
b11110010 W
b10011 0"
b10010 ."
b1001100000000000000000000 -"
b10010 1"
b100000010010 /"
b1000100101001110 A
b110011 v
b110011 ""
b0 .
b0 {
b0 }
b0 z
b0 ~
b0 )
b0 t
b10011 (
b10011 s
b10010 *
b10010 u
b100110000000010010 ,"
b11000100101001110 =
b1001100000000100100110011 >
b1001100000000100100110011 p
b10000 ?
#390000
b10010 6
b10010 L
b110011 :
b110011 Y
b10010 m
1g
b10010 l
b10011 n
1Z
b1001110010000000000000000 -"
b10010000100000010010 /"
b1001100101001110 A
b10010 )
b10010 t
b100111001000010010 ,"
b11001100101001110 =
b1001110010000100100110011 >
b1001110010000100100110011 p
b10001 ?
#410000
b1010 7
b1010 N
b1001 5
b1001 I
b1010 6
b1010 L
b11 /
b11 |
b11 *"
b11 <
b11 @
b11 k
1g
b1010 l
b1001 n
b1010 m
b11001 :
b11001 Y
b1001 -
b1001 x
b1001 2"
1P
0O
b1 R
0Z
b11 ]
b11 \
b11010 M
b11001 F
b1001 G
b1 H
b11001 T
b11001 U
b11 V
b10111000 8
b10111000 W
b1001 0"
b1010 ."
b100101010111000000000000 -"
b1010 1"
b1010111100000001000 /"
b1000110101100101 A
b111 .
b111 {
b111 }
b111 z
b111 ~
b1010 )
b1010 t
b1001 (
b1001 s
b1010 *
b1010 u
b10010101011101010 ,"
b11000110101100101 =
b100101010111010100110011 >
b100101010111010100110011 p
b10010 ?
#430000
b10001 :
b10001 Y
b100 /
b100 |
b100 *"
1g
b100 <
b100 @
b100 k
b1010 l
b1001 n
b1010 m
b10 \
b10001 F
b10001 T
b10001 U
b100101010110000000000000 -"
b1010110100000001000 /"
b1000110101000101 A
b110 .
b110 {
b110 }
b110 z
b110 ~
b10010101011001010 ,"
b11000110101000101 =
b100101010110010100110011 >
b100101010110010100110011 p
b10011 ?
#450000
b101 /
b101 |
b101 *"
b1001 :
b1001 Y
1g
b101 <
b101 @
b101 k
b1010 l
b1001 n
b1010 m
b1 \
b1001 F
b1001 T
b1001 U
b111000 8
b111000 W
b100101010100000000000000 -"
b1010100100000001000 /"
b1000110100100101 A
b100 .
b100 {
b100 }
b100 z
b100 ~
b10010101010001010 ,"
b11000110100100101 =
b100101010100010100110011 >
b100101010100010100110011 p
b10100 ?
#470000
b10 /
b10 |
b10 *"
b1 :
b1 Y
1g
b10 <
b10 @
b10 k
b1010 l
b1001 n
b1010 m
b10000001001 -
b10000001001 x
b10000001001 2"
b0 \
b1 F
b1 T
b1 U
b10000001001 0"
b10000001010 ."
b1000000100101010000000000000000 -"
b10000001010 1"
b1010000110000001000 /"
b1000110100000101 A
b0 .
b0 {
b0 }
b0 z
b0 ~
b100000 y
b100000 !"
b100000010010101000001010 ,"
b11000110100000101 =
b1000000100101010000010100110011 >
b1000000100101010000010100110011 p
b10101 ?
#490000
b0 7
b0 N
b0 5
b0 I
b0 6
b0 L
b1 /
b1 |
b1 *"
1a
0g
b1 <
b1 @
b1 k
b0 l
b0 n
b0 m
b0 :
b0 Y
1%
b0 -
b0 x
b0 2"
0S
b0 [
b0 ]
b0 M
b0 F
b1000 J
b0 K
b1000 G
b0 H
b0 T
b0 U
b0 V
b0 8
b0 W
b0 0"
b0 ."
b0 -"
b0 1"
b0 /"
b1 A
b10011 v
b10011 ""
b0 y
b0 !"
b0 )
b0 t
b0 (
b0 s
b0 *
b0 u
b0 ,"
b10000000000000001 =
b10011 >
b10011 p
b10110 ?
#510000
b10111 ?
